Split Sample Analysis
…
  See gargle's "Non-interactive auth" vignette for more details:

  <]8;;https://gargle.r-lib.org/articles/non-interactive-auth.htmlhttps://gargle.r-lib.org/articles/non-interactive-auth.html]8;;>

ℹ The googlesheets4 package is using a cached token for ']8;;mailto:gbullied@smith.edugbullied@smith.edu]8;;'.

✔ Reading from "UFR-A Split Sample Analysis".

✔ Range 'Sheet1'.

UFRA

# A tibble: 25 × 3
   scientific_name life_stage number
   <chr>           <chr>       <dbl>
 1 Chironomidae    larva         353
 2 Pycnopsyche     larva           4
 3 Neophylax       larva           7
 4 Hydroptilidae   larva           1
 5 Psephenus       larva           3
 6 Stenelmis       larva           3
 7 Apatania        larva           1
 8 Stenacron       larva           4
 9 Stenonema       larva           1
10 Maccaffertium   larva           3
# ℹ 15 more rows

UFRB <- read_sheet('https://docs.google.com/spreadsheets/d/1cCIpR0pO8veAa-3TEfsqMpwQKrQ3DANd142HPvIEEtE/edit#gid=0')

✔ Reading from "UFR-B Split Sample Analysis".
✔ Range 'Sheet1'.

UFRB

# A tibble: 22 × 3
   scientific_name life_stage number
   <chr>           <chr>       <dbl>
 1 Chironomidae    larva         294
 2 Polycentropus   larva           1
 3 Pycnopsyche     larva           1
 4 Neophylax       larva           4
 5 Hydroptilidae   larva           1
 6 Psephenus       larva           5
 7 Stenelmis       larva           2
 8 Apatania        larva           1
 9 Stenacron       larva           4
10 Stenonema       larva           6
# ℹ 12 more rows
…
By graphing UFR-A and UFR-B in box plots, we are able to compare the interquartile range, middle 50% of the data, and visualize the outliers in order to assess variability. In UFR-A, Chironomidae larva totaled at 353 organisms, and Segmented_worms totaled at 63. In UFR-B, Chironomidae larva totaled at 294 organisms, and Segmented_worms totaled at 42. Due to these outliers, the data is very variable and will offer a less precise conclusion. Therefore, in order to best visualize the difference in biodiversity and total organisms in the split sample, we have to remove these values.

#read edited data
UFRAedited <- read_sheet('https://docs.google.com/spreadsheets/d/1AScGvjQSn0eN5uLZHe4sHsTOn0nZ4BJHBokVu1KarIw/edit#gid=0')

✔ Reading from "UFR-A Edited".

✔ Range 'Sheet1'.

UFRAedited

# A tibble: 23 × 3
   scientific_name life_stage number
   <chr>           <chr>       <dbl>
 1 Pycnopsyche     larva           4
 2 Neophylax       larva           7
 3 Hydroptilidae   larva           1
 4 Psephenus       larva           3
 5 Stenelmis       larva           3
 6 Apatania        larva           1
 7 Stenacron       larva           4
 8 Stenonema       larva           1
 9 Maccaffertium   larva           3
10 Leucrocuta      larva          23
# ℹ 13 more rows
…
